<?xml version="1.0" encoding="utf-8"?>
<!-- Generator: Adobe Illustrator 16.0.0, SVG Export Plug-In . SVG Version: 6.00 Build 0)  -->
<!DOCTYPE svg PUBLIC "-//W3C//DTD SVG 1.1//EN" "http://www.w3.org/Graphics/SVG/1.1/DTD/svg11.dtd">
<svg version="1.1" id="Calque_1" xmlns="http://www.w3.org/2000/svg" xmlns:xlink="http://www.w3.org/1999/xlink" x="0px" y="0px"
	 width="519.16px" height="518.625px" viewBox="0 0 519.16 518.625" enable-background="new 0 0 519.16 518.625"
	 xml:space="preserve">
<path fill="#F4F4F4" d="M514.417,490.968L352.435,329.176c29.713-34.88,47.754-79.989,47.754-129.271
	C400.188,89.666,310.427,0,200.094,0S0,89.674,0,199.904c0,110.203,89.761,199.877,200.094,199.877
	c49.343,0,94.495-18.021,129.419-47.71l161.991,161.812c3.162,3.162,7.31,4.742,11.456,4.742s8.286-1.58,11.457-4.742
	C520.741,507.549,520.741,497.302,514.417,490.968z M200.094,367.382c-92.474,0-167.694-75.116-167.694-167.479
	S107.629,32.399,200.094,32.399s167.693,75.149,167.693,167.504C367.787,292.257,292.567,367.382,200.094,367.382z"/>
<text transform="matrix(1 0 0 1 527.999 993.5977)" display="none" enable-background="new    " font-family="'Arial-BoldMT'" font-size="43.2">Created by Christian Baptist</text>
<text transform="matrix(1 0 0 1 527.999 1036.8008)" display="none" enable-background="new    " font-family="'Arial-BoldMT'" font-size="43.2">from the Noun Project</text>
</svg>
